{
    "productId": "xps-15-9570-laptop",
    "productName": "XPS 15 9570",
    "productBrandId": "xps",
    "productBrandName": "XPS",
    "itemComponents": 
    [
        {
            "component": 
            {
                "isSellable": false,
                "itemComponents": 
                [
                    {
                        "component": 
                        {
                            "isSellable": false,
                            "itemComponents": [],
                            "manufacturerId": "694",
                            "manufacturerName": "Dell",
                            "specifications": {},
                            "definitionFromDateTime": "2018-10-02T19:54:25.5180688+00:00",
                            "definitionToDateTime": "9999-12-31T23:59:59.9999999+00:00",
                            "id": "210-aoym",
                            "name": "XPS 15 (9570)",
                            "description": "XPS 15 (9570)",
                            "Properties": {}
                        },
                        "isSelected": true,
                        "componentClassification": 
                        {
                            "id": "gf6ql0v",
                            "name": "XPS 15 (9570)",
                            "status": "Active"
                        }
                    }
                ],
                "manufacturerId": "694",
                "manufacturerName": "Dell",
                "specifications": {},
                "definitionFromDateTime": "2018-10-02T19:54:25.4750772+00:00",
                "definitionToDateTime": "9999-12-31T23:59:59.9999999+00:00",
                "id": "386_1_gf6ql0v",
                "name": "XPS 15 (9570)",
                "description": "XPS 15 (9570)",
                "Properties": 
                {
                    "daystoship": {
                        "key": "daystoship",
                        "status": "Active",
                        "value": "3"
                    }
                }
            },
            "isSelected": true,
            "componentClassification": {
                "id": "1",
                "name": "XPS 15",
                "status": "Active"
            }
        },
        {
            "component": 
            {
                "isSellable": false,
                "itemComponents": [
                    {
                        "component": {
                            "isSellable": false,
                            "itemComponents": [],
                            "manufacturerId": "694",
                            "manufacturerName": "Dell",
                            "specifications": {},
                            "definitionFromDateTime": "2018-10-02T19:54:25.6681365+00:00",
                            "definitionToDateTime": "9999-12-31T23:59:59.9999999+00:00",
                            "id": "619-ahcy",
                            "name": "Windows 10 Home (64bit) English",
                            "description": "Windows 10 Home (64bit) English",
                            "Properties": {}
                        },
                        "isSelected": true,
                        "componentClassification": {
                            "id": "10hhee",
                            "name": "Windows 10 Home 64-bit English",
                            "status": "Active"
                        }
                    }
                ],
                "manufacturerId": "694",
                "manufacturerName": "Dell",
                "specifications": {
                    "os_dwngrd_brand": {
                        "id": "os_dwngrd_brand",
                        "values": [
                            {
                                "name": "OS_DWNGRD_BRAND",
                                "value": "*"
                            }
                        ]
                    },
                    "os_product_red": {
                        "id": "os_product_red",
                        "values": [
                            {
                                "name": "OS_PRODUCT_RED",
                                "value": "N"
                            }
                        ]
                    },
                    "os_manufct": {
                        "id": "os_manufct",
                        "values": [
                            {
                                "name": "OS_MANUFCT",
                                "value": "MS"
                            }
                        ]
                    },
                    "os_prod_code": {
                        "id": "os_prod_code",
                        "values": [
                            {
                                "name": "OS_PROD_CODE",
                                "value": "MSW10_W10_HM"
                            }
                        ]
                    },
                    "os_dwngrd": {
                        "id": "os_dwngrd",
                        "values": [
                            {
                                "name": "OS_DWNGRD",
                                "value": "N"
                            }
                        ]
                    },
                    "os_bit_count": {
                        "id": "os_bit_count",
                        "values": [
                            {
                                "name": "OS_BIT_COUNT",
                                "value": "64"
                            }
                        ]
                    },
                    "os_dwngrd_versn": {
                        "id": "os_dwngrd_versn",
                        "values": [
                            {
                                "name": "OS_DWNGRD_VERSN",
                                "value": "*"
                            }
                        ]
                    },
                    "os_brand": {
                        "id": "os_brand",
                        "values": [
                            {
                                "name": "OS_BRAND",
                                "value": "W10"
                            }
                        ]
                    },
                    "os_versn": {
                        "id": "os_versn",
                        "values": [
                            {
                                "name": "OS_VERSN",
                                "value": "W10_HM"
                            }
                        ]
                    }
                },
                "definitionFromDateTime": "2018-10-02T19:54:25.5230668+00:00",
                "definitionToDateTime": "9999-12-31T23:59:59.9999999+00:00",
                "id": "386_11_10hhee",
                "name": "Windows 10 Home 64-bit English",
                "description": "Windows 10 Home 64-bit English",
                "Properties": {
                    "daystoship": {
                        "key": "daystoship",
                        "status": "Active",
                        "value": "1"
                    }
                }
            },
            "isSelected": true,
            "componentClassification": {
                "id": "11",
                "name": "Operating System",
                "status": "Active"
            }
        },
        {
            "component": {
                "isSellable": false,
                "itemComponents": [
                    {
                        "component": {
                            "isSellable": false,
                            "itemComponents": [],
                            "manufacturerId": "694",
                            "manufacturerName": "Dell",
                            "specifications": {},
                            "definitionFromDateTime": "2018-10-02T19:54:25.8350508+00:00",
                            "definitionToDateTime": "9999-12-31T23:59:59.9999999+00:00",
                            "id": "338-bopv",
                            "name": "8th Generation Intel(R) Core(TM) i5-8300H Processor (8M Cache, up to 4.0 GHz, 4 cores)",
                            "description": "8th Generation Intel(R) Core(TM) i5-8300H Processor (8M Cache, up to 4.0 GHz, 4 cores)",
                            "Properties": {}
                        },
                        "isSelected": true,
                        "componentClassification": {
                            "id": "g5jqoen",
                            "name": "8th Generation Intel® Core™ i5-8300H Processor (8M Cache, up to 4.0 GHz, 4 Cores)",
                            "status": "Active"
                        }
                    }
                ],
                "manufacturerId": "694",
                "manufacturerName": "Dell",
                "specifications": {
                    "proc_manufct": {
                        "id": "proc_manufct",
                        "values": [
                            {
                                "name": "PROC_MANUFCT",
                                "value": "INT"
                            }
                        ]
                    },
                    "proc_model": {
                        "id": "proc_model",
                        "values": [
                            {
                                "name": "PROC_MODEL",
                                "value": "8300H"
                            }
                        ]
                    },
                    "proc_brand": {
                        "id": "proc_brand",
                        "values": [
                            {
                                "name": "PROC_BRAND",
                                "value": "CORE_I5_8"
                            }
                        ]
                    },
                    "proc_fsb_speed_mhz": {
                        "id": "proc_fsb_speed_mhz",
                        "values": [
                            {
                                "name": "PROC_FSB_SPEED_MHZ",
                                "value": "-1"
                            }
                        ]
                    },
                    "proc_cache_size_mb": {
                        "id": "proc_cache_size_mb",
                        "values": [
                            {
                                "name": "PROC_CACHE_SIZE_MB",
                                "value": "8"
                            }
                        ]
                    },
                    "proc_speed_ghz": {
                        "id": "proc_speed_ghz",
                        "values": [
                            {
                                "name": "PROC_SPEED_GHZ",
                                "value": "2.30"
                            }
                        ]
                    },
                    "proc_prod_code": {
                        "id": "proc_prod_code",
                        "values": [
                            {
                                "name": "PROC_PROD_CODE",
                                "value": "INTCORI5_8300H"
                            }
                        ]
                    },
                    "proc_turbo_speed_ghz": {
                        "id": "proc_turbo_speed_ghz",
                        "values": [
                            {
                                "name": "PROC_TURBO_SPEED_GHZ",
                                "value": "4"
                            }
                        ]
                    },
                    "proc_core_count": {
                        "id": "proc_core_count",
                        "values": [
                            {
                                "name": "PROC_CORE_COUNT",
                                "value": "4"
                            }
                        ]
                    }
                },
                "definitionFromDateTime": "2018-10-02T19:54:25.671142+00:00",
                "definitionToDateTime": "9999-12-31T23:59:59.9999999+00:00",
                "id": "386_146_g5jqoen",
                "name": "8th Generation Intel® Core™ i5-8300H Processor (8M Cache, up to 4.0 GHz, 4 Cores)",
                "description": "8th Generation Intel® Core™ i5-8300H Processor (8M Cache, up to 4.0 GHz, 4 Cores)",
                "Properties": {
                    "daystoship": {
                        "key": "daystoship",
                        "status": "Active",
                        "value": "1"
                    }
                }
            },
            "isSelected": true,
            "componentClassification": {
                "id": "146",
                "name": "Processor",
                "status": "Active"
            }
        },
        {
            "component": {
                "isSellable": false,
                "itemComponents": [
                    {
                        "component": {
                            "isSellable": false,
                            "itemComponents": [],
                            "manufacturerId": "694",
                            "manufacturerName": "Dell",
                            "specifications": {},
                            "definitionFromDateTime": "2018-10-02T19:54:25.9951375+00:00",
                            "definitionToDateTime": "9999-12-31T23:59:59.9999999+00:00",
                            "id": "370-aedv",
                            "name": "8GB (2x4GB) DDR4, 2666MHz",
                            "description": "8GB (2x4GB) DDR4, 2666MHz",
                            "Properties": {}
                        },
                        "isSelected": true,
                        "componentClassification": {
                            "id": "gv7wi43",
                            "name": "8GB DDR4-2666MHz, 2x4GB",
                            "status": "Active"
                        }
                    }
                ],
                "manufacturerId": "694",
                "manufacturerName": "Dell",
                "specifications": {
                    "memry_speed_mhz": {
                        "id": "memry_speed_mhz",
                        "values": [
                            {
                                "name": "MEMRY_SPEED_MHZ",
                                "value": "2666"
                            }
                        ]
                    },
                    "memry_type": {
                        "id": "memry_type",
                        "values": [
                            {
                                "name": "MEMRY_TYPE",
                                "value": "DDR4"
                            }
                        ]
                    },
                    "memry_dimm_count": {
                        "id": "memry_dimm_count",
                        "values": [
                            {
                                "name": "MEMRY_DIMM_COUNT",
                                "value": "2"
                            }
                        ]
                    },
                    "memry_chnnl": {
                        "id": "memry_chnnl",
                        "values": [
                            {
                                "name": "MEMRY_CHNNL",
                                "value": "*"
                            }
                        ]
                    },
                    "memry_catry": {
                        "id": "memry_catry",
                        "values": [
                            {
                                "name": "MEMRY_CATRY",
                                "value": "LAPTP"
                            }
                        ]
                    },
                    "memry_size_gb": {
                        "id": "memry_size_gb",
                        "values": [
                            {
                                "name": "MEMRY_SIZE_GB",
                                "value": "8"
                            }
                        ]
                    }
                },
                "definitionFromDateTime": "2018-10-02T19:54:25.8350508+00:00",
                "definitionToDateTime": "9999-12-31T23:59:59.9999999+00:00",
                "id": "386_3_gv7wi43",
                "name": "8GB DDR4-2666MHz, 2x4GB",
                "description": "8GB DDR4-2666MHz, 2x4GB",
                "Properties": {
                    "daystoship": {
                        "key": "daystoship",
                        "status": "Active",
                        "value": "1"
                    }
                }
            },
            "isSelected": true,
            "componentClassification": {
                "id": "3",
                "name": "Memory",
                "status": "Active"
            }
        },
        {
            "component": {
                "isSellable": false,
                "itemComponents": [
                    {
                        "component": {
                            "isSellable": false,
                            "itemComponents": [],
                            "manufacturerId": "694",
                            "manufacturerName": "Dell",
                            "specifications": {},
                            "definitionFromDateTime": "2018-10-02T19:54:26.1385415+00:00",
                            "definitionToDateTime": "9999-12-31T23:59:59.9999999+00:00",
                            "id": "400-axjp",
                            "name": "1TB 5400RPM 2.5\" SATA Solid State Hybrid Drive",
                            "description": "1TB 5400RPM 2.5\" SATA Solid State Hybrid Drive",
                            "Properties": {}
                        },
                        "isSelected": true,
                        "componentClassification": {
                            "id": "g835azr",
                            "name": "1TB 5400RPM 2.5\" SATA Solid State Hybrid Drive",
                            "status": "Active"
                        }
                    }
                ],
                "manufacturerId": "694",
                "manufacturerName": "Dell",
                "specifications": {
                    "hd_speed_rpm": {
                        "id": "hd_speed_rpm",
                        "values": [
                            {
                                "name": "HD_SPEED_RPM",
                                "value": "5400"
                            }
                        ]
                    },
                    "hd_capacity_gb": {
                        "id": "hd_capacity_gb",
                        "values": [
                            {
                                "name": "HD_CAPACITY_GB",
                                "value": "1000"
                            }
                        ]
                    },
                    "hd_catry": {
                        "id": "hd_catry",
                        "values": [
                            {
                                "name": "HD_CATRY",
                                "value": "LAPTP"
                            }
                        ]
                    },
                    "hd_drive_count": {
                        "id": "hd_drive_count",
                        "values": [
                            {
                                "name": "HD_DRIVE_COUNT",
                                "value": "1"
                            }
                        ]
                    },
                    "hd_typ": {
                        "id": "hd_typ",
                        "values": [
                            {
                                "name": "HD_TYP",
                                "value": "SSH"
                            }
                        ]
                    }
                },
                "definitionFromDateTime": "2018-10-02T19:54:25.9951375+00:00",
                "definitionToDateTime": "9999-12-31T23:59:59.9999999+00:00",
                "id": "386_8_g835azr",
                "name": "1TB 5400RPM 2.5\" SATA Solid State Hybrid Drive",
                "description": "1TB 5400RPM 2.5\" SATA Solid State Hybrid Drive",
                "Properties": {
                    "daystoship": {
                        "key": "daystoship",
                        "status": "Active",
                        "value": "1"
                    }
                }
            },
            "isSelected": true,
            "componentClassification": {
                "id": "8",
                "name": "Hard Drive",
                "status": "Active"
            }
        },
        {
            "component": {
                "isSellable": false,
                "itemComponents": [
                    {
                        "component": {
                            "isSellable": false,
                            "itemComponents": [],
                            "manufacturerId": "694",
                            "manufacturerName": "Dell",
                            "specifications": {},
                            "definitionFromDateTime": "2018-10-02T19:54:26.2765334+00:00",
                            "definitionToDateTime": "9999-12-31T23:59:59.9999999+00:00",
                            "id": "490-beno",
                            "name": "Intel(R) UHD Graphics 630",
                            "description": "Intel(R) UHD Graphics 630",
                            "Properties": {}
                        },
                        "isSelected": true,
                        "componentClassification": {
                            "id": "g0g7dim",
                            "name": "Intel® UHD Graphics 630",
                            "status": "Active"
                        }
                    }
                ],
                "manufacturerId": "694",
                "manufacturerName": "Dell",
                "specifications": {
                    "vid_model": {
                        "id": "vid_model",
                        "values": [
                            {
                                "name": "VID_MODEL",
                                "value": "630"
                            }
                        ]
                    },
                    "vid_intgrtn": {
                        "id": "vid_intgrtn",
                        "values": [
                            {
                                "name": "VID_INTGRTN",
                                "value": "Y"
                            }
                        ]
                    },
                    "vid_prod_code": {
                        "id": "vid_prod_code",
                        "values": [
                            {
                                "name": "VID_PROD_CODE",
                                "value": "INTHD_630"
                            }
                        ]
                    },
                    "vid_manufct": {
                        "id": "vid_manufct",
                        "values": [
                            {
                                "name": "VID_MANUFCT",
                                "value": "INTEL"
                            }
                        ]
                    },
                    "vid_brand": {
                        "id": "vid_brand",
                        "values": [
                            {
                                "name": "VID_BRAND",
                                "value": "HD"
                            }
                        ]
                    },
                    "vid_confgtn": {
                        "id": "vid_confgtn",
                        "values": [
                            {
                                "name": "VID_CONFGTN",
                                "value": "S"
                            }
                        ]
                    },
                    "vid_mem_size_mb": {
                        "id": "vid_mem_size_mb",
                        "values": [
                            {
                                "name": "VID_MEM_SIZE_MB",
                                "value": "-1"
                            }
                        ]
                    }
                },
                "definitionFromDateTime": "2018-10-02T19:54:26.1385415+00:00",
                "definitionToDateTime": "9999-12-31T23:59:59.9999999+00:00",
                "id": "386_6_g0g7dim",
                "name": "Intel® UHD Graphics 630",
                "description": "Intel® UHD Graphics 630",
                "Properties": {
                    "daystoship": {
                        "key": "daystoship",
                        "status": "Active",
                        "value": "1"
                    }
                }
            },
            "isSelected": true,
            "componentClassification": {
                "id": "6",
                "name": "Video Card",
                "status": "Active"
            }
        },
        {
            "component": {
                "isSellable": false,
                "itemComponents": [
                    {
                        "component": {
                            "isSellable": false,
                            "itemComponents": [],
                            "manufacturerId": "694",
                            "manufacturerName": "Dell",
                            "specifications": {},
                            "definitionFromDateTime": "2018-10-02T19:54:26.4315292+00:00",
                            "definitionToDateTime": "9999-12-31T23:59:59.9999999+00:00",
                            "id": "320-bcpd",
                            "name": "Silver Machined Aluminum Back Cover",
                            "description": "Silver Machined Aluminum Back Cover",
                            "Properties": {}
                        },
                        "isSelected": true,
                        "componentClassification": {
                            "id": "g2jxtz6",
                            "name": "15.6\" FHD (1920 x 1080) InfinityEdge Anti-Glare Non-touch IPS 100% sRGB 400-Nits display",
                            "status": "Active"
                        }
                    },
                    {
                        "component": {
                            "isSellable": false,
                            "itemComponents": [],
                            "manufacturerId": "694",
                            "manufacturerName": "Dell",
                            "specifications": {},
                            "definitionFromDateTime": "2018-10-02T19:54:26.5930809+00:00",
                            "definitionToDateTime": "9999-12-31T23:59:59.9999999+00:00",
                            "id": "391-bdtb",
                            "name": "15.6\" FHD (1920 x 1080) InfinityEdge Anti-Glare Non-touch IPS 100% sRGB 400-Nits display",
                            "description": "15.6\" FHD (1920 x 1080) InfinityEdge Anti-Glare Non-touch IPS 100% sRGB 400-Nits display",
                            "Properties": {}
                        },
                        "isSelected": true,
                        "componentClassification": {
                            "id": "g2jxtz6",
                            "name": "15.6\" FHD (1920 x 1080) InfinityEdge Anti-Glare Non-touch IPS 100% sRGB 400-Nits display",
                            "status": "Active"
                        }
                    }
                ],
                "manufacturerId": "694",
                "manufacturerName": "Dell",
                "specifications": {
                    "touch_screen": {
                        "id": "touch_screen",
                        "values": [
                            {
                                "name": "TOUCH_SCREEN",
                                "value": "N"
                            }
                        ]
                    },
                    "disply_face_recgtn": {
                        "id": "disply_face_recgtn",
                        "values": [
                            {
                                "name": "DISPLY_FACE_RECGTN",
                                "value": "N"
                            }
                        ]
                    },
                    "disply_type": {
                        "id": "disply_type",
                        "values": [
                            {
                                "name": "DISPLY_TYPE",
                                "value": "*"
                            }
                        ]
                    },
                    "disply_finish": {
                        "id": "disply_finish",
                        "values": [
                            {
                                "name": "DISPLY_FINISH",
                                "value": "M"
                            }
                        ]
                    },
                    "disply_aspect_ratio": {
                        "id": "disply_aspect_ratio",
                        "values": [
                            {
                                "name": "DISPLY_ASPECT_RATIO",
                                "value": "16:9"
                            }
                        ]
                    },
                    "disply_resoltn": {
                        "id": "disply_resoltn",
                        "values": [
                            {
                                "name": "DISPLY_RESOLTN",
                                "value": "1920x1080"
                            }
                        ]
                    },
                    "disply_viewsize_cm": {
                        "id": "disply_viewsize_cm",
                        "values": [
                            {
                                "name": "DISPLY_VIEWSIZE_CM",
                                "value": "40"
                            }
                        ]
                    },
                    "disply_aspect_type": {
                        "id": "disply_aspect_type",
                        "values": [
                            {
                                "name": "DISPLY_ASPECT_TYPE",
                                "value": "*"
                            }
                        ]
                    },
                    "disply_viewsize_in": {
                        "id": "disply_viewsize_in",
                        "values": [
                            {
                                "name": "DISPLY_VIEWSIZE_IN",
                                "value": "15.6"
                            }
                        ]
                    }
                },
                "definitionFromDateTime": "2018-10-02T19:54:26.2765334+00:00",
                "definitionToDateTime": "9999-12-31T23:59:59.9999999+00:00",
                "id": "386_760_g2jxtz6",
                "name": "15.6\" FHD (1920 x 1080) InfinityEdge Anti-Glare Non-touch IPS 100% sRGB 400-Nits display",
                "description": "15.6\" FHD (1920 x 1080) InfinityEdge Anti-Glare Non-touch IPS 100% sRGB 400-Nits display",
                "Properties": {
                    "daystoship": {
                        "key": "daystoship",
                        "status": "Active",
                        "value": "1"
                    }
                }
            },
            "isSelected": true,
            "componentClassification": {
                "id": "760",
                "name": "LCD",
                "status": "Active"
            }
        },
        {
            "component": {
                "isSellable": false,
                "itemComponents": [
                    {
                        "component": {
                            "isSellable": false,
                            "itemComponents": [],
                            "manufacturerId": "694",
                            "manufacturerName": "Dell",
                            "specifications": {},
                            "definitionFromDateTime": "2018-10-02T19:54:26.7620828+00:00",
                            "definitionToDateTime": "9999-12-31T23:59:59.9999999+00:00",
                            "id": "555-bcrm",
                            "name": "Killer 1535 802.11ac 2x2 WiFi and Bluetooth 4.2",
                            "description": "Killer 1535 802.11ac 2x2 WiFi and Bluetooth 4.2",
                            "Properties": {}
                        },
                        "isSelected": true,
                        "componentClassification": {
                            "id": "gu1zx3l",
                            "name": "Killer 1535 802.11ac 2x2 WiFi and Bluetooth 4.2",
                            "status": "Active"
                        }
                    },
                    {
                        "component": {
                            "isSellable": false,
                            "itemComponents": [],
                            "manufacturerId": "694",
                            "manufacturerName": "Dell",
                            "specifications": {},
                            "definitionFromDateTime": "2018-10-02T19:54:26.9428092+00:00",
                            "definitionToDateTime": "9999-12-31T23:59:59.9999999+00:00",
                            "id": "555-bemx",
                            "name": "XPS 15 Wireless Antenna",
                            "description": "XPS 15 Wireless Antenna",
                            "Properties": {}
                        },
                        "isSelected": true,
                        "componentClassification": {
                            "id": "gu1zx3l",
                            "name": "Killer 1535 802.11ac 2x2 WiFi and Bluetooth 4.2",
                            "status": "Active"
                        }
                    }
                ],
                "manufacturerId": "694",
                "manufacturerName": "Dell",
                "specifications": {},
                "definitionFromDateTime": "2018-10-02T19:54:26.5930809+00:00",
                "definitionToDateTime": "9999-12-31T23:59:59.9999999+00:00",
                "id": "386_19_gu1zx3l",
                "name": "Killer 1535 802.11ac 2x2 WiFi and Bluetooth 4.2",
                "description": "Killer 1535 802.11ac 2x2 WiFi and Bluetooth 4.2",
                "Properties": {
                    "daystoship": {
                        "key": "daystoship",
                        "status": "Active",
                        "value": "1"
                    }
                }
            },
            "isSelected": true,
            "componentClassification": {
                "id": "19",
                "name": "Wireless",
                "status": "Active"
            }
        },
        {
            "component": {
                "isSellable": false,
                "itemComponents": [
                    {
                        "component": {
                            "isSellable": false,
                            "itemComponents": [],
                            "manufacturerId": "694",
                            "manufacturerName": "Dell",
                            "specifications": {},
                            "definitionFromDateTime": "2018-10-02T19:54:27.1175862+00:00",
                            "definitionToDateTime": "9999-12-31T23:59:59.9999999+00:00",
                            "id": "451-bcge",
                            "name": "3-Cell 56WHr Integrated",
                            "description": "3-Cell 56WHr Integrated",
                            "Properties": {}
                        },
                        "isSelected": true,
                        "componentClassification": {
                            "id": "gg9hkes",
                            "name": "3-Cell 56WHr Integrated",
                            "status": "Active"
                        }
                    }
                ],
                "manufacturerId": "694",
                "manufacturerName": "Dell",
                "specifications": {
                    "bttry_power_whr": {
                        "id": "bttry_power_whr",
                        "values": [
                            {
                                "name": "BTTRY_POWER_WHR",
                                "value": "56"
                            }
                        ]
                    },
                    "bttry_cell_cnt": {
                        "id": "bttry_cell_cnt",
                        "values": [
                            {
                                "name": "BTTRY_CELL_CNT",
                                "value": "3"
                            }
                        ]
                    },
                    "bttry_type": {
                        "id": "bttry_type",
                        "values": [
                            {
                                "name": "BTTRY_TYPE",
                                "value": "LI"
                            }
                        ]
                    }
                },
                "definitionFromDateTime": "2018-10-02T19:54:26.9428092+00:00",
                "definitionToDateTime": "9999-12-31T23:59:59.9999999+00:00",
                "id": "386_112_gg9hkes",
                "name": "3-Cell 56WHr Integrated",
                "description": "3-Cell 56WHr Integrated",
                "Properties": {
                    "daystoship": {
                        "key": "daystoship",
                        "status": "Active",
                        "value": "1"
                    }
                }
            },
            "isSelected": true,
            "componentClassification": {
                "id": "112",
                "name": "Primary Battery",
                "status": "Active"
            }
        },
        {
            "component": {
                "isSellable": false,
                "itemComponents": [
                    {
                        "component": {
                            "isSellable": false,
                            "itemComponents": [],
                            "manufacturerId": "694",
                            "manufacturerName": "Dell",
                            "specifications": {},
                            "definitionFromDateTime": "2018-10-02T19:54:27.2976037+00:00",
                            "definitionToDateTime": "9999-12-31T23:59:59.9999999+00:00",
                            "id": "580-ahej",
                            "name": "Backlit English Keyboard with Fingerprint Reader",
                            "description": "Backlit English Keyboard with Fingerprint Reader",
                            "Properties": {}
                        },
                        "isSelected": true,
                        "componentClassification": {
                            "id": "gym0tp5",
                            "name": "Backlit English Keyboard with Fingerprint Reader",
                            "status": "Active"
                        }
                    }
                ],
                "manufacturerId": "694",
                "manufacturerName": "Dell",
                "specifications": {},
                "definitionFromDateTime": "2018-10-02T19:54:27.1175862+00:00",
                "definitionToDateTime": "9999-12-31T23:59:59.9999999+00:00",
                "id": "386_4_gym0tp5",
                "name": "Backlit English Keyboard with Fingerprint Reader",
                "description": "Backlit English Keyboard with Fingerprint Reader",
                "Properties": {
                    "daystoship": {
                        "key": "daystoship",
                        "status": "Active",
                        "value": "1"
                    }
                }
            },
            "isSelected": true,
            "componentClassification": {
                "id": "4",
                "name": "Keyboard",
                "status": "Active"
            }
        },
        {
            "component": {
                "isSellable": false,
                "itemComponents": [
                    {
                        "component": {
                            "isSellable": false,
                            "itemComponents": [],
                            "manufacturerId": "694",
                            "manufacturerName": "Dell",
                            "specifications": {},
                            "definitionFromDateTime": "2018-10-02T19:54:27.4632765+00:00",
                            "definitionToDateTime": "9999-12-31T23:59:59.9999999+00:00",
                            "id": "555-beke",
                            "name": "Killer 1535 Driver",
                            "description": "Killer 1535 Driver",
                            "Properties": {}
                        },
                        "isSelected": true,
                        "componentClassification": {
                            "id": "g8ypt7v",
                            "name": "Killer 1535 Driver",
                            "status": "Active"
                        }
                    }
                ],
                "manufacturerId": "694",
                "manufacturerName": "Dell",
                "specifications": {},
                "definitionFromDateTime": "2018-10-02T19:54:27.2976037+00:00",
                "definitionToDateTime": "9999-12-31T23:59:59.9999999+00:00",
                "id": "386_7_g8ypt7v",
                "name": "Killer 1535 Driver",
                "description": "Killer 1535 Driver",
                "Properties": {
                    "daystoship": {
                        "key": "daystoship",
                        "status": "Active",
                        "value": "1"
                    }
                }
            },
            "isSelected": true,
            "componentClassification": {
                "id": "7",
                "name": "Driver",
                "status": "Active"
            }
        },
        {
            "component": {
                "isSellable": false,
                "itemComponents": [
                    {
                        "component": {
                            "isSellable": false,
                            "itemComponents": [],
                            "manufacturerId": "694",
                            "manufacturerName": "Dell",
                            "specifications": {},
                            "definitionFromDateTime": "2018-10-02T19:54:27.6002563+00:00",
                            "definitionToDateTime": "9999-12-31T23:59:59.9999999+00:00",
                            "id": "340-aamu",
                            "name": "E5 Power Cord for 3-pin Adapter (US/China)",
                            "description": "E5 Power Cord for 3-pin Adapter (US/China)",
                            "Properties": {}
                        },
                        "isSelected": true,
                        "componentClassification": {
                            "id": "pwrus",
                            "name": "US Power Cord",
                            "status": "Active"
                        }
                    }
                ],
                "manufacturerId": "694",
                "manufacturerName": "Dell",
                "specifications": {},
                "definitionFromDateTime": "2018-10-02T19:54:27.4632765+00:00",
                "definitionToDateTime": "9999-12-31T23:59:59.9999999+00:00",
                "id": "386_20_pwrus",
                "name": "US Power Cord",
                "description": "US Power Cord",
                "Properties": {
                    "daystoship": {
                        "key": "daystoship",
                        "status": "Active",
                        "value": "1"
                    }
                }
            },
            "isSelected": true,
            "componentClassification": {
                "id": "20",
                "name": "Cable",
                "status": "Active"
            }
        },
        {
            "component": {
                "isSellable": false,
                "itemComponents": [
                    {
                        "component": {
                            "isSellable": false,
                            "itemComponents": [],
                            "manufacturerId": "694",
                            "manufacturerName": "Dell",
                            "specifications": {},
                            "definitionFromDateTime": "2018-10-02T19:54:27.7416171+00:00",
                            "definitionToDateTime": "9999-12-31T23:59:59.9999999+00:00",
                            "id": "631-abux",
                            "name": "XPS 15 Software",
                            "description": "XPS 15 Software",
                            "Properties": {}
                        },
                        "isSelected": true,
                        "componentClassification": {
                            "id": "gym617k",
                            "name": "XPS 15 Software",
                            "status": "Active"
                        }
                    }
                ],
                "manufacturerId": "694",
                "manufacturerName": "Dell",
                "specifications": {},
                "definitionFromDateTime": "2018-10-02T19:54:27.6002563+00:00",
                "definitionToDateTime": "9999-12-31T23:59:59.9999999+00:00",
                "id": "386_49_gym617k",
                "name": "XPS 15 Software",
                "description": "XPS 15 Software",
                "Properties": {
                    "daystoship": {
                        "key": "daystoship",
                        "status": "Active",
                        "value": "1"
                    }
                }
            },
            "isSelected": true,
            "componentClassification": {
                "id": "49",
                "name": "Systems Management",
                "status": "Active"
            }
        },
        {
            "component": {
                "isSellable": false,
                "itemComponents": [
                    {
                        "component": {
                            "isSellable": false,
                            "itemComponents": [],
                            "manufacturerId": "694",
                            "manufacturerName": "Dell",
                            "specifications": {},
                            "definitionFromDateTime": "2018-10-02T19:54:27.9028668+00:00",
                            "definitionToDateTime": "9999-12-31T23:59:59.9999999+00:00",
                            "id": "340-cefy",
                            "name": "Placemat for English, Portuguese Brazil, French, Spanish, Dutch",
                            "description": "Placemat for English, Portuguese Brazil, French, Spanish, Dutch",
                            "Properties": {}
                        },
                        "isSelected": true,
                        "componentClassification": {
                            "id": "g2rzxiq",
                            "name": "Placemat for English, Portuguese Brazil, French, Spanish, Dutch",
                            "status": "Active"
                        }
                    }
                ],
                "manufacturerId": "694",
                "manufacturerName": "Dell",
                "specifications": {},
                "definitionFromDateTime": "2018-10-02T19:54:27.7416171+00:00",
                "definitionToDateTime": "9999-12-31T23:59:59.9999999+00:00",
                "id": "386_60_g2rzxiq",
                "name": "Placemat for English, Portuguese Brazil, French, Spanish, Dutch",
                "description": "Placemat for English, Portuguese Brazil, French, Spanish, Dutch",
                "Properties": {
                    "daystoship": {
                        "key": "daystoship",
                        "status": "Active",
                        "value": "1"
                    }
                }
            },
            "isSelected": true,
            "componentClassification": {
                "id": "60",
                "name": "Placemat",
                "status": "Active"
            }
        },
        {
            "component": {
                "isSellable": false,
                "itemComponents": [
                    {
                        "component": {
                            "isSellable": false,
                            "itemComponents": [],
                            "manufacturerId": "694",
                            "manufacturerName": "Dell",
                            "specifications": {},
                            "definitionFromDateTime": "2018-10-02T19:54:28.0859088+00:00",
                            "definitionToDateTime": "9999-12-31T23:59:59.9999999+00:00",
                            "id": "332-1286",
                            "name": "US Order",
                            "description": "US Order",
                            "Properties": {}
                        },
                        "isSelected": true,
                        "componentClassification": {
                            "id": "usnone",
                            "name": "US No Canada Ship Charge",
                            "status": "Active"
                        }
                    }
                ],
                "manufacturerId": "694",
                "manufacturerName": "Dell",
                "specifications": {},
                "definitionFromDateTime": "2018-10-02T19:54:27.9028668+00:00",
                "definitionToDateTime": "9999-12-31T23:59:59.9999999+00:00",
                "id": "386_111_usnone",
                "name": "US No Canada Ship Charge",
                "description": "US No Canada Ship Charge",
                "Properties": {
                    "daystoship": {
                        "key": "daystoship",
                        "status": "Active",
                        "value": "1"
                    }
                }
            },
            "isSelected": true,
            "componentClassification": {
                "id": "111",
                "name": "Canada Ship Options",
                "status": "Active"
            }
        },
        {
            "component": {
                "isSellable": false,
                "itemComponents": [
                    {
                        "component": {
                            "isSellable": false,
                            "itemComponents": [],
                            "manufacturerId": "694",
                            "manufacturerName": "Dell",
                            "specifications": {},
                            "definitionFromDateTime": "2018-10-02T19:54:28.2576213+00:00",
                            "definitionToDateTime": "9999-12-31T23:59:59.9999999+00:00",
                            "id": "811-bbbc",
                            "name": "Return Label",
                            "description": "Return Label",
                            "Properties": {}
                        },
                        "isSelected": true,
                        "componentClassification": {
                            "id": "gc3nfq4",
                            "name": "Retail Return Label",
                            "status": "Active"
                        }
                    }
                ],
                "manufacturerId": "694",
                "manufacturerName": "Dell",
                "specifications": {},
                "definitionFromDateTime": "2018-10-02T19:54:28.0859088+00:00",
                "definitionToDateTime": "9999-12-31T23:59:59.9999999+00:00",
                "id": "386_61_gc3nfq4",
                "name": "Retail Return Label",
                "description": "Retail Return Label",
                "Properties": {
                    "daystoship": {
                        "key": "daystoship",
                        "status": "Active",
                        "value": "1"
                    }
                }
            },
            "isSelected": true,
            "componentClassification": {
                "id": "61",
                "name": "Business Support",
                "status": "Active"
            }
        },
        {
            "component": {
                "isSellable": false,
                "itemComponents": [
                    {
                        "component": {
                            "isSellable": false,
                            "itemComponents": [],
                            "manufacturerId": "694",
                            "manufacturerName": "Dell",
                            "specifications": {},
                            "definitionFromDateTime": "2018-10-02T19:54:28.4149549+00:00",
                            "definitionToDateTime": "9999-12-31T23:59:59.9999999+00:00",
                            "id": "332-1530",
                            "name": "Dell.com Order",
                            "description": "Dell.com Order",
                            "Properties": {}
                        },
                        "isSelected": true,
                        "componentClassification": {
                            "id": "gb82r16",
                            "name": "Dell.com Order",
                            "status": "Active"
                        }
                    }
                ],
                "manufacturerId": "694",
                "manufacturerName": "Dell",
                "specifications": {},
                "definitionFromDateTime": "2018-10-02T19:54:28.2576213+00:00",
                "definitionToDateTime": "9999-12-31T23:59:59.9999999+00:00",
                "id": "386_292_gb82r16",
                "name": "Dell.com Order",
                "description": "Dell.com Order",
                "Properties": {
                    "daystoship": {
                        "key": "daystoship",
                        "status": "Active",
                        "value": "1"
                    }
                }
            },
            "isSelected": true,
            "componentClassification": {
                "id": "292",
                "name": "Support Tech Sheet and Powercord",
                "status": "Active"
            }
        },
        {
            "component": {
                "isSellable": false,
                "itemComponents": [
                    {
                        "component": {
                            "isSellable": false,
                            "itemComponents": [],
                            "manufacturerId": "694",
                            "manufacturerName": "Dell",
                            "specifications": {},
                            "definitionFromDateTime": "2018-10-02T19:54:28.5745052+00:00",
                            "definitionToDateTime": "9999-12-31T23:59:59.9999999+00:00",
                            "id": "340-agik",
                            "name": "Safety/Environment and Regulatory Guide (English/French Multi-language)",
                            "description": "Safety/Environment and Regulatory Guide (English/French Multi-language)",
                            "Properties": {}
                        },
                        "isSelected": true,
                        "componentClassification": {
                            "id": "g7rb0gy",
                            "name": "Safety/Environment and Regulatory Guide (English/French Multi-language)",
                            "status": "Active"
                        }
                    }
                ],
                "manufacturerId": "694",
                "manufacturerName": "Dell",
                "specifications": {},
                "definitionFromDateTime": "2018-10-02T19:54:28.4149549+00:00",
                "definitionToDateTime": "9999-12-31T23:59:59.9999999+00:00",
                "id": "386_21_g7rb0gy",
                "name": "Safety/Environment and Regulatory Guide (English/French Multi-language)",
                "description": "Safety/Environment and Regulatory Guide (English/French Multi-language)",
                "Properties": {
                    "daystoship": {
                        "key": "daystoship",
                        "status": "Active",
                        "value": "1"
                    }
                }
            },
            "isSelected": true,
            "componentClassification": {
                "id": "21",
                "name": "Documentation/Disks",
                "status": "Active"
            }
        },
        {
            "component": {
                "isSellable": false,
                "itemComponents": [
                    {
                        "component": {
                            "isSellable": false,
                            "itemComponents": [],
                            "manufacturerId": "694",
                            "manufacturerName": "Dell",
                            "specifications": {},
                            "definitionFromDateTime": "2018-10-02T19:54:28.7588532+00:00",
                            "definitionToDateTime": "9999-12-31T23:59:59.9999999+00:00",
                            "id": "340-bkxp",
                            "name": "XPS15 Shipping Material - Direct Only",
                            "description": "XPS15 Shipping Material - Direct Only",
                            "Properties": {}
                        },
                        "isSelected": true,
                        "componentClassification": {
                            "id": "g9nvly6",
                            "name": "XPS 15 Shipping Material",
                            "status": "Active"
                        }
                    }
                ],
                "manufacturerId": "694",
                "manufacturerName": "Dell",
                "specifications": {},
                "definitionFromDateTime": "2018-10-02T19:54:28.5745052+00:00",
                "definitionToDateTime": "9999-12-31T23:59:59.9999999+00:00",
                "id": "386_465_g9nvly6",
                "name": "XPS 15 Shipping Material",
                "description": "XPS 15 Shipping Material",
                "Properties": {
                    "daystoship": {
                        "key": "daystoship",
                        "status": "Active",
                        "value": "1"
                    }
                }
            },
            "isSelected": true,
            "componentClassification": {
                "id": "465",
                "name": "Packaging",
                "status": "Active"
            }
        },
        {
            "component": {
                "isSellable": false,
                "itemComponents": [
                    {
                        "component": {
                            "isSellable": false,
                            "itemComponents": [],
                            "manufacturerId": "694",
                            "manufacturerName": "Dell",
                            "specifications": {},
                            "definitionFromDateTime": "2018-10-02T19:54:28.8908605+00:00",
                            "definitionToDateTime": "9999-12-31T23:59:59.9999999+00:00",
                            "id": "450-ahfl",
                            "name": "130W Power Adapter",
                            "description": "130W Power Adapter",
                            "Properties": {}
                        },
                        "isSelected": true,
                        "componentClassification": {
                            "id": "g56balr",
                            "name": "130W Power Adapter",
                            "status": "Active"
                        }
                    }
                ],
                "manufacturerId": "694",
                "manufacturerName": "Dell",
                "specifications": {},
                "definitionFromDateTime": "2018-10-02T19:54:28.7588532+00:00",
                "definitionToDateTime": "9999-12-31T23:59:59.9999999+00:00",
                "id": "386_1015_g56balr",
                "name": "130W Power Adapter",
                "description": "130W Power Adapter",
                "Properties": {
                    "daystoship": {
                        "key": "daystoship",
                        "status": "Active",
                        "value": "1"
                    }
                }
            },
            "isSelected": true,
            "componentClassification": {
                "id": "1015",
                "name": "Power Supply",
                "status": "Active"
            }
        },
        {
            "component": {
                "isSellable": false,
                "itemComponents": [
                    {
                        "component": {
                            "isSellable": false,
                            "itemComponents": [],
                            "manufacturerId": "694",
                            "manufacturerName": "Dell",
                            "specifications": {},
                            "definitionFromDateTime": "2018-10-02T19:54:29.0348502+00:00",
                            "definitionToDateTime": "9999-12-31T23:59:59.9999999+00:00",
                            "id": "998-cxdi",
                            "name": "Fixed Hardware Configuration",
                            "description": "Fixed Hardware Configuration",
                            "Properties": {}
                        },
                        "isSelected": true,
                        "componentClassification": {
                            "id": "fg0012",
                            "name": "BERLCFL1901_1651_P_DAO/US/CA/BTO",
                            "status": "Active"
                        }
                    }
                ],
                "manufacturerId": "694",
                "manufacturerName": "Dell",
                "specifications": {},
                "definitionFromDateTime": "2018-10-02T19:54:28.8908605+00:00",
                "definitionToDateTime": "9999-12-31T23:59:59.9999999+00:00",
                "id": "386_572_fg0012",
                "name": "BERLCFL1901_1651_P_DAO/US/CA/BTO",
                "description": "BERLCFL1901_1651_P_DAO/US/CA/BTO",
                "Properties": {
                    "daystoship": {
                        "key": "daystoship",
                        "status": "Active",
                        "value": "1"
                    }
                }
            },
            "isSelected": true,
            "componentClassification": {
                "id": "572",
                "name": "FGA Module",
                "status": "Active"
            }
        },
        {
            "component": {
                "isSellable": false,
                "itemComponents": [
                    {
                        "component": {
                            "isSellable": false,
                            "itemComponents": [],
                            "manufacturerId": "694",
                            "manufacturerName": "Dell",
                            "specifications": {},
                            "definitionFromDateTime": "2018-10-02T19:54:29.1850526+00:00",
                            "definitionToDateTime": "9999-12-31T23:59:59.9999999+00:00",
                            "id": "389-cxhp",
                            "name": "8th Generation Intel(R) Core(TM) i5 Processor Label",
                            "description": "8th Generation Intel(R) Core(TM) i5 Processor Label",
                            "Properties": {}
                        },
                        "isSelected": true,
                        "componentClassification": {
                            "id": "g4mqt9p",
                            "name": "8th Generation Intel® Core™ i5 Processor Label",
                            "status": "Active"
                        }
                    }
                ],
                "manufacturerId": "694",
                "manufacturerName": "Dell",
                "specifications": {},
                "definitionFromDateTime": "2018-10-02T19:54:29.0348502+00:00",
                "definitionToDateTime": "9999-12-31T23:59:59.9999999+00:00",
                "id": "386_749_g4mqt9p",
                "name": "8th Generation Intel® Core™ i5 Processor Label",
                "description": "8th Generation Intel® Core™ i5 Processor Label",
                "Properties": {
                    "daystoship": {
                        "key": "daystoship",
                        "status": "Active",
                        "value": "1"
                    }
                }
            },
            "isSelected": true,
            "componentClassification": {
                "id": "749",
                "name": "Processor Branding",
                "status": "Active"
            }
        },
        {
            "component": {
                "isSellable": false,
                "itemComponents": [
                    {
                        "component": {
                            "isSellable": false,
                            "itemComponents": [],
                            "manufacturerId": "694",
                            "manufacturerName": "Dell",
                            "specifications": {},
                            "definitionFromDateTime": "2018-10-02T19:54:29.436187+00:00",
                            "definitionToDateTime": "9999-12-31T23:59:59.9999999+00:00",
                            "id": "340-acqq",
                            "name": "No Option Included",
                            "description": "No Option Included",
                            "Properties": {}
                        },
                        "isSelected": true,
                        "componentClassification": {
                            "id": "nodbrm",
                            "name": "Operating System Recovery Media Not Included",
                            "status": "Active"
                        }
                    }
                ],
                "manufacturerId": "694",
                "manufacturerName": "Dell",
                "specifications": {},
                "definitionFromDateTime": "2018-10-02T19:54:29.1850526+00:00",
                "definitionToDateTime": "9999-12-31T23:59:59.9999999+00:00",
                "id": "386_200013_nodbrm",
                "name": "Operating System Recovery Media Not Included",
                "description": "Operating System Recovery Media Not Included",
                "Properties": {
                    "daystoship": {
                        "key": "daystoship",
                        "status": "Active",
                        "value": "1"
                    }
                }
            },
            "isSelected": true,
            "componentClassification": {
                "id": "200013",
                "name": "Operating System Recovery Options",
                "status": "Active"
            }
        },
        {
            "component": {
                "isSellable": false,
                "itemComponents": [
                    {
                        "component": {
                            "isSellable": false,
                            "itemComponents": [],
                            "manufacturerId": "694",
                            "manufacturerName": "Dell",
                            "specifications": {},
                            "definitionFromDateTime": "2018-10-02T19:54:29.5471467+00:00",
                            "definitionToDateTime": "9999-12-31T23:59:59.9999999+00:00",
                            "id": "801-0978",
                            "name": "Dell Limited Hardware Warranty Initial Year",
                            "description": "Dell Limited Hardware Warranty Initial Year",
                            "Properties": {}
                        },
                        "isSelected": true,
                        "componentClassification": {
                            "id": "g0bq41j",
                            "name": "1 Year Ltd Hware Warranty: Mail-in; Customer supplies box, Dell pays shipping",
                            "status": "Active"
                        }
                    },
                    {
                        "component": {
                            "isSellable": false,
                            "itemComponents": [],
                            "manufacturerId": "694",
                            "manufacturerName": "Dell",
                            "specifications": {},
                            "definitionFromDateTime": "2018-10-02T19:54:29.6590382+00:00",
                            "definitionToDateTime": "9999-12-31T23:59:59.9999999+00:00",
                            "id": "801-1012",
                            "name": "Mail In Service after Remote Diagnosis, 1 Year",
                            "description": "Mail In Service after Remote Diagnosis, 1 Year",
                            "Properties": {}
                        },
                        "isSelected": true,
                        "componentClassification": {
                            "id": "g0bq41j",
                            "name": "1 Year Ltd Hware Warranty: Mail-in; Customer supplies box, Dell pays shipping",
                            "status": "Active"
                        }
                    }
                ],
                "manufacturerId": "694",
                "manufacturerName": "Dell",
                "specifications": {
                    "duration": {
                        "id": "duration",
                        "values": [
                            {
                                "name": "WRNTY_DURTN_YR",
                                "value": "1"
                            }
                        ]
                    }
                },
                "definitionFromDateTime": "2018-10-02T19:54:29.436187+00:00",
                "definitionToDateTime": "9999-12-31T23:59:59.9999999+00:00",
                "id": "386_29_g0bq41j",
                "name": "1 Year Ltd Hware Warranty: Mail-in; Customer supplies box, Dell pays shipping",
                "description": "1 Year Ltd Hware Warranty: Mail-in; Customer supplies box, Dell pays shipping",
                "Properties": {
                    "daystoship": {
                        "key": "daystoship",
                        "status": "Active",
                        "value": "1"
                    }
                }
            },
            "isSelected": true,
            "componentClassification": {
                "id": "29",
                "name": "Hardware support Services",
                "status": "Active"
            }
        },
        {
            "component": {
                "isSellable": false,
                "itemComponents": [
                    {
                        "component": {
                            "isSellable": false,
                            "itemComponents": [],
                            "manufacturerId": "694",
                            "manufacturerName": "Dell",
                            "specifications": {},
                            "definitionFromDateTime": "2018-10-02T19:54:29.7740351+00:00",
                            "definitionToDateTime": "9999-12-31T23:59:59.9999999+00:00",
                            "id": "658-bcsb",
                            "name": "Microsoft(R) Office 30 Days Trial",
                            "description": "Microsoft(R) Office 30 Days Trial",
                            "Properties": {}
                        },
                        "isSelected": true,
                        "componentClassification": {
                            "id": "otrt13m",
                            "name": "Microsoft Office 30 Day Trial",
                            "status": "Active"
                        }
                    }
                ],
                "manufacturerId": "694",
                "manufacturerName": "Dell",
                "specifications": {},
                "definitionFromDateTime": "2018-10-02T19:54:29.6590382+00:00",
                "definitionToDateTime": "9999-12-31T23:59:59.9999999+00:00",
                "id": "386_1002_otrt13m",
                "name": "Microsoft Office 30 Day Trial",
                "description": "Microsoft Office 30 Day Trial",
                "Properties": {
                    "daystoship": {
                        "key": "daystoship",
                        "status": "Active",
                        "value": "1"
                    }
                }
            },
            "isSelected": true,
            "componentClassification": {
                "id": "1002",
                "name": "Microsoft Application Software",
                "status": "Active"
            }
        },
        {
            "component": {
                "isSellable": false,
                "itemComponents": [
                    {
                        "component": {
                            "isSellable": false,
                            "itemComponents": [],
                            "manufacturerId": "694",
                            "manufacturerName": "Dell",
                            "specifications": {},
                            "definitionFromDateTime": "2018-10-02T19:54:30.0429667+00:00",
                            "definitionToDateTime": "9999-12-31T23:59:59.9999999+00:00",
                            "id": "658-bcuj",
                            "name": "Additional Software",
                            "description": "Additional Software",
                            "Properties": {}
                        },
                        "isSelected": true,
                        "componentClassification": {
                            "id": "xpsw10",
                            "name": "Additional Software",
                            "status": "Active"
                        }
                    }
                ],
                "manufacturerId": "694",
                "manufacturerName": "Dell",
                "specifications": {},
                "definitionFromDateTime": "2018-10-02T19:54:29.7740351+00:00",
                "definitionToDateTime": "9999-12-31T23:59:59.9999999+00:00",
                "id": "386_1003_xpsw10",
                "name": "Additional Software",
                "description": "Additional Software",
                "Properties": {
                    "daystoship": {
                        "key": "daystoship",
                        "status": "Active",
                        "value": "1"
                    }
                }
            },
            "isSelected": true,
            "componentClassification": {
                "id": "1003",
                "name": "Additional Software",
                "status": "Active"
            }
        },
        {
            "component": {
                "isSellable": false,
                "itemComponents": [
                    {
                        "component": {
                            "isSellable": false,
                            "itemComponents": [],
                            "manufacturerId": "694",
                            "manufacturerName": "Dell",
                            "specifications": {},
                            "definitionFromDateTime": "2018-10-02T19:54:30.1849534+00:00",
                            "definitionToDateTime": "9999-12-31T23:59:59.9999999+00:00",
                            "id": "525-0036",
                            "name": "McAfee Live Safe XPS 12 Month Subscription",
                            "description": "McAfee Live Safe XPS 12 Month Subscription",
                            "Properties": {}
                        },
                        "isSelected": true,
                        "componentClassification": {
                            "id": "lsxp12m",
                            "name": "McAfee LiveSafe 12 Month Subscription",
                            "status": "Active"
                        }
                    },
                    {
                        "component": {
                            "isSellable": false,
                            "itemComponents": [],
                            "manufacturerId": "694",
                            "manufacturerName": "Dell",
                            "specifications": {},
                            "definitionFromDateTime": "2018-10-02T19:54:30.341706+00:00",
                            "definitionToDateTime": "9999-12-31T23:59:59.9999999+00:00",
                            "id": "658-bcco",
                            "name": "McAfee(R) 30day Trial",
                            "description": "McAfee(R) 30day Trial",
                            "Properties": {}
                        },
                        "isSelected": true,
                        "componentClassification": {
                            "id": "lsxp12m",
                            "name": "McAfee LiveSafe 12 Month Subscription",
                            "status": "Active"
                        }
                    }
                ],
                "manufacturerId": "694",
                "manufacturerName": "Dell",
                "specifications": {
                    "secsw_subdurtn_mo": {
                        "id": "secsw_subdurtn_mo",
                        "values": [
                            {
                                "name": "SECSW_SUBDURTN_MO",
                                "value": "12"
                            }
                        ]
                    },
                    "secsw_manufct": {
                        "id": "secsw_manufct",
                        "values": [
                            {
                                "name": "SECSW_MANUFCT",
                                "value": "MCAF"
                            }
                        ]
                    },
                    "secsw_brand": {
                        "id": "secsw_brand",
                        "values": [
                            {
                                "name": "SECSW_BRAND",
                                "value": "LS"
                            }
                        ]
                    }
                },
                "definitionFromDateTime": "2018-10-02T19:54:30.0429667+00:00",
                "definitionToDateTime": "9999-12-31T23:59:59.9999999+00:00",
                "id": "386_1014_lsxp12m",
                "name": "McAfee LiveSafe 12 Month Subscription",
                "description": "McAfee LiveSafe 12 Month Subscription",
                "Properties": {
                    "daystoship": {
                        "key": "daystoship",
                        "status": "Active",
                        "value": "1"
                    }
                }
            },
            "isSelected": true,
            "componentClassification": {
                "id": "1014",
                "name": "Protect your new PC",
                "status": "Active"
            }
        }
    ],
    "status": "Active",
    "productLine": "systems",
    "internalName": "XPS 15-9570|32GB (2DIMMS)|1TB 5.4K|INTEL HD 630|K1535|W10",
    "catalogId": "29_online",
    "lastUpdated": "2018-10-02T19:54:32.0098048+00:00",
    "commodityClassId": "laptp",
    "commodityClassName": "Laptop Computers",
    "manufacturerId": "694",
    "manufacturerName": "Dell",
    "specifications": {
        "ad_weight_kg": {
            "id": "ad_weight_kg",
            "values": [
                {
                    "name": "AD_WEIGHT_KG",
                    "value": "1.80"
                }
            ]
        },
        "ad_weight_lb": {
            "id": "ad_weight_lb",
            "values": [
                {
                    "name": "AD_WEIGHT_LB",
                    "value": "4.00"
                }
            ]
        }
    },
    "definitionFromDateTime": "2018-10-02T19:54:00+00:00",
    "definitionToDateTime": "9999-12-31T23:59:59.9999999+00:00",
    "id": "dycwb1651h",
    "name": "XPS 15",
    "description": "XPS 15",
    "Properties": {
        "oc_icon3": {
            "key": "oc_icon3",
            "status": "Active",
            "description": "OC_ICON3",
            "value": "MEMRY:MEMRY_SIZE_GB"
        },
        "oc_icon1": {
            "key": "oc_icon1",
            "status": "Active",
            "description": "OC_ICON1",
            "value": "PROC:PROC_BRAND"
        },
        "system_family": {
            "key": "system_family",
            "status": "Active",
            "value": "13539"
        },
        "oc_module_snp_essentials": {
            "key": "oc_module_snp_essentials",
            "status": "Active",
            "description": "OC_MODULE_SNP_ESSENTIALS",
            "value": "7004"
        },
        "oc_lang_flvr": {
            "key": "oc_lang_flvr",
            "status": "Active",
            "description": "OC_LANG_FLVR",
            "value": "EN"
        },
        "oc_fasttrack": {
            "key": "oc_fasttrack",
            "status": "Active",
            "description": "OC_FASTTRACK",
            "value": "N"
        },
        "baseitmclass": {
            "key": "baseitmclass",
            "status": "Active",
            "value": "PM003"
        },
        "oc_module_upsells": {
            "key": "oc_module_upsells",
            "status": "Active",
            "description": "OC_MODULE_UPSELLS",
            "value": "29"
        },
        "currencycode": {
            "key": "currencycode",
            "status": "Active",
            "description": "USD",
            "value": "USD"
        },
        "chassis_brand": {
            "key": "chassis_brand",
            "status": "Active",
            "value": "26",
            "name": "Dell XPS Notebooks"
        },
        "oc_module_upsells_hub": {
            "key": "oc_module_upsells_hub",
            "status": "Active",
            "description": "OC_MODULE_UPSELLS_HUB",
            "value": "29"
        },
        "chassis": {
            "key": "chassis",
            "status": "Active",
            "value": "386"
        },
        "oc_icon2": {
            "key": "oc_icon2",
            "status": "Active",
            "description": "OC_ICON2",
            "value": "OS:OS_BRAND"
        },
        "oc_module_snp_upsells": {
            "key": "oc_module_snp_upsells",
            "status": "Active",
            "description": "OC_MODULE_SNP_UPSELLS",
            "value": "5827"
        },
        "oc_icon4": {
            "key": "oc_icon4",
            "status": "Active",
            "description": "OC_ICON4",
            "value": "HDRV:HD_CAPACITY_GB"
        }
    }
}